KB’s Visual Analytics - 4 Working with json files for Network Analysis
…
MC1_graph <- tbl_graph(nodes = MC1_nodes,
                       edges = MC1_edges_aggregated,
                       directed = TRUE)

Let's take a look at the output tidygraph's graph object.

Show the code

MC1_graph

# A tbl_graph: 3428 nodes and 10747 edges
#
# A bipartite multigraph with 93 components
#
# A tibble: 3,428 × 3
  id                       type         country 
  <chr>                    <chr>        <chr>   
1 Spanish Shrimp  Carriers company      Nalakond
2 12744                    organization <NA>    
3 143129355                organization <NA>    
4 7775                     organization <NA>    
5 1017141                  organization <NA>    
6 2591586                  organization <NA>    
# ℹ 3,422 more rows
#
# A tibble: 10,747 × 4
   from    to type                weight_sum
  <int> <int> <chr>                    <int>
1    49    51 family_relationship          0
2    49    52 family_relationship          0
3    49     4 family_relationship          0
# ℹ 10,744 more rows
…
