Hands-On Ex 6
…
tq_portfolio() provides a useful tool set for aggregating a group of individual asset returns into one or many portfolios.

Time-based returns analysis with tidyquant

An important concept of performance analysis is based on the statistical properties of returns (not prices). In the codes below, tq_transmute() is used to compute the monthly returns of the six stocks

 Stock_monthly_returns <- Stock_data %>%
 group_by(Name) %>%
 tq_transmute(select = adjusted,
 mutate_fun = periodReturn,
 period = "monthly",
 type = "arithmetic")
 Stock_monthly_returns

# A tibble: 108 × 3
# Groups:   Name [6]
   Name      date       monthly.returns
   <chr>     <date>               <dbl>
 1 DBS Group 2022-01-31          0.0735
 2 DBS Group 2022-02-28         -0.0392
 3 DBS Group 2022-03-31          0.0594
 4 DBS Group 2022-04-29         -0.0436
 5 DBS Group 2022-05-31         -0.0776
 6 DBS Group 2022-06-30         -0.0407
 7 DBS Group 2022-07-29          0.0603
 8 DBS Group 2022-08-31          0.0472
 9 DBS Group 2022-09-30          0.0242
10 DBS Group 2022-10-31          0.0243
# ℹ 98 more rows
…
