KB’s Visual Analytics - Take-Home Ex3
…
filtered_data_list

# A tibble: 5,302 × 4
   source                      target           type             weight
   <chr>                       <chr>            <chr>             <int>
 1 1 Ltd. Liability Co         Yesenia Oliver   Company Contacts      1
 2 1 Ltd. Liability Co         Yesenia Oliver   Company Contacts      1
 3 1 Swordfish Ltd Solutions   Daniel Reese     Company Contacts      1
 4 1 Swordfish Ltd Solutions   Daniel Reese     Company Contacts      1
 5 Saharan Coast  BV Marine    Daniel Reese     Company Contacts      1
 6 Olas del Sur Estuary        Daniel Reese     Company Contacts      1
 7 5 Limited Liability Company Brittany Jones   Beneficial Owner      1
 8 Bahía de Coral Kga          Brittany Jones   Beneficial Owner      1
 9 5 Limited Liability Company Elizabeth Torres Beneficial Owner      1
10 Bahía de Coral Kga          Elizabeth Torres Beneficial Owner      1
# ℹ 5,292 more rows
…
Prepare the tbl_graph for network plotting

Show the code

seafood_graph<- tbl_graph(nodes=seafood_nodes,
                          edges = seafood_edges,
                          directed = FALSE)

seafood_graph

# A tbl_graph: 3369 nodes and 2721 edges
#
# An unrooted forest with 648 trees
#
# A tibble: 3,369 × 9
  id         type  type_count country country_count product_services revenue_omu
  <chr>      <chr>      <int> <chr>           <dbl> <chr>                  <dbl>
1 2 Limited… Comp…          1 Marebak             1 Canning, proces…          NA
2 9 Charter… Comp…          1 Marebak             1 Fish and fish p…       36658
3 Adair S.A… Comp…          1 Mawazam             1 Frozen cephalop…       33309
4 Adams Gro… Comp…          1 ZH                  1 A range of fish…        9056
5 Adriatic … Comp…          1 Nalako…             1 Fish and seafoo…      113379
6 Adriatic … Comp…          1 Nalako…             1 Canned seafood …       16452
# ℹ 3,363 more rows
# ℹ 2 more variables: product_services2 <chr>, category <chr>
#
# A tibble: 2,721 × 4
   from    to type             weight
  <int> <int> <chr>             <int>
1     1   695 Beneficial Owner      1
2     1   696 Company Contacts      1
3     1   697 Company Contacts      1
# ℹ 2,718 more rows
…
The above anomarly can be detected by the subgraph’s membership size-to-diameter ratio. The higher the ratio

Show the code

ratio <- freq_count %>%
  inner_join(network_diameter,by=c('group_id')) %>%
  mutate(size_to_diameter_ratio = round(count/network_diameter,2)) %>%
  arrange(desc(size_to_diameter_ratio))

ratio

# A tibble: 648 × 4
   group_id count network_diameter size_to_diameter_ratio
      <dbl> <int>            <dbl>                  <dbl>
 1      102    61                2                   30.5
 2      376    41                2                   20.5
 3      270    70                4                   17.5
 4      555    32                2                   16  
 5      399    29                2                   14.5
 6       29    51                4                   12.8
 7      295    50                4                   12.5
 8      496    25                2                   12.5
 9      258    24                2                   12  
10      528    24                2                   12  
# ℹ 638 more rows
…
