KB’s Visual Analytics - FishEye Knowldge Graph: Identify Temporal Patterns of individual entities and between entities
…
test graph

Show the code

mc2_edges %>% filter(!is.null(valueofgoods_omu))

# A tibble: 5,464,378 × 8
   source          target arrivaldate hscode valueofgoods_omu volumeteu weightkg
   <chr>           <chr>  <date>      <chr>             <dbl>     <dbl>    <int>
 1 AquaDelight In… Barin… 2034-02-12  630630           141015         0     4780
 2 AquaDelight In… Barin… 2034-03-13  630630           141015         0     6125
 3 AquaDelight In… -15045 2028-02-07  470710               NA         0    10855
 4 AquaDelight In… -15045 2028-02-23  470710               NA         0    11250
 5 AquaDelight In… -15045 2028-09-11  470710               NA         0    11165
 6 AquaDelight In… -15045 2028-10-09  470710               NA         0    11290
 7 AquaDelight In… Océan… 2028-04-12  304890               NA         0     9000
 8 AquaDelight In… Olas … 2028-06-04  304890               NA         0    19490
 9 AquaDelight In… Shou … 2028-09-03  303890               NA         0     6865
10 AquaDelight In… Shou … 2028-09-08  306170               NA         0    19065
# ℹ 5,464,368 more rows
# ℹ 1 more variable: valueofgoodsusd <dbl>
…
