KB’s Visual Analytics - FishEye Knowldge Graph: Identify Temporal Patterns of individual entities and between entities
…
# Find the largest subgraph
largest_subgraph <- subgraph(catfish_igraph, which(components(catfish_igraph)$membership == which.max(components(catfish_igraph)$csize)))

# Convert largest subgraph to tbl_graph
catfish_largest_subgraph <- as_tbl_graph(largest_subgraph)

# Verify the largest subgraph
catfish_largest_subgraph

# A tbl_graph: 65 nodes and 77 edges
#
# A directed multigraph with 1 component
#
# A tibble: 65 × 3
  id                              shpcountry rcvcountry
  <chr>                           <chr>      <chr>     
1 "Albertine Rift  LLC Line"      -27        <NA>      
2 "hǎi dǎn Corporation Wharf"     <NA>       -27       
3 "Kong zhong diao yu  NV Export" Calabrix   <NA>      
4 "Caracola del Sol Services"     <NA>       Azurionix 
5 "Uttar Pradesh s CJSC"          Marebak    <NA>      
6 "Pao gan LC Freight "           <NA>       Azurionix 
# ℹ 59 more rows
#
# A tibble: 77 × 5
   from    to arrivaldate hscode valueofgoods_omu
  <int> <int> <date>       <int>            <dbl>
1     1     2 2034-12-01  761699               NA
2     3     4 2034-06-11  220830               NA
3     3     4 2034-12-23  220890               NA
# ℹ 74 more rows
…
# Find the largest subgraph
largest_subgraph <- subgraph(catfish_igraph, which(components(catfish_igraph)$membership == which.max(components(catfish_igraph)$csize)))

# Convert largest subgraph to tbl_graph
catfish_largest_subgraph1 <- as_tbl_graph(largest_subgraph)

# Verify the largest subgraph
catfish_largest_subgraph1

# A tbl_graph: 62 nodes and 32359 edges
#
# A directed multigraph with 1 component
#
# A tibble: 62 × 1
  id                               
  <chr>                            
1 Ianira Starfish Sagl Import      
2 Makumba Ltd. Liability Co        
3 Zambezi Gorge  N.V. Transport    
4 Assam   Limited Liability Company
5 Tshikwea Ltd. Liability Co       
6 Mar y Luna Sagl                  
# ℹ 56 more rows
#
# A tibble: 32,359 × 8
   from    to arrivaldate hscode valueofgoods_omu volumeteu weightkg
  <int> <int> <date>      <chr>             <dbl>     <dbl>    <int>
1     1    47 2034-12-28  870323               NA        NA     1500
2     1    47 2034-12-28  870323               NA        NA     8040
3     1    47 2034-12-28  870323               NA        NA   160325
# ℹ 32,356 more rows
# ℹ 1 more variable: valueofgoodsusd <dbl>
…
# Find the largest subgraph
largest_subgraph <- subgraph(catfish_igraph, which(components(catfish_igraph)$membership == which.max(components(catfish_igraph)$csize)))

# Convert largest subgraph to tbl_graph
catfish_largest_subgraph <- as_tbl_graph(largest_subgraph)

# Verify the largest subgraph
catfish_largest_subgraph

# A tbl_graph: 13 nodes and 26 edges
#
# A directed acyclic multigraph with 1 component
#
# A tibble: 13 × 3
  id                                    shpcountry rcvcountry
  <chr>                                 <chr>      <chr>     
1 Mar de Estrellas Ltd                  Rio Isla   <NA>      
2 hǎi dǎn Corporation Wharf             <NA>       Azurionix 
3 Barents Sea Shrimp N.V.               Marebak    <NA>      
4 Orange River   GmbH & Co. KG Shipping Marebak    <NA>      
5 Ancla de Oro Ltd. Corporation         Coraland   <NA>      
6 Aqua Aura SE Marine life              Kondanovia <NA>      
# ℹ 7 more rows
#
# A tibble: 26 × 5
   from    to arrivaldate hscode valueofgoods_omu
  <int> <int> <date>       <int>            <dbl>
1     1     2 2034-03-26  870894               NA
2     1     2 2034-03-26  870894               NA
3     1     2 2034-03-26  870894               NA
# ℹ 23 more rows
…
# Find the largest subgraph
largest_subgraph <- subgraph(catfish_igraph, which(components(catfish_igraph)$membership == which.max(components(catfish_igraph)$csize)))

# Convert largest subgraph to tbl_graph
catfish_largest_subgraph1 <- as_tbl_graph(largest_subgraph)

# Verify the largest subgraph
catfish_largest_subgraph1

# A tbl_graph: 12 nodes and 4225 edges
#
# A directed acyclic multigraph with 1 component
#
# A tibble: 12 × 1
  id                                   
  <chr>                                
1 Ianira Starfish Sagl Import          
2 Orange River   GmbH & Co. KG Shipping
3 Aqua Aura SE Marine life             
4 Mar de Estrellas Incorporated        
5 jīng Coral LLC Carriers              
6 Mar de Estrellas Ltd                 
# ℹ 6 more rows
#
# A tibble: 4,225 × 8
   from    to arrivaldate hscode valueofgoods_omu volumeteu weightkg
  <int> <int> <date>      <chr>             <dbl>     <dbl>    <int>
1     1    12 2034-12-25  870899               NA         5     7470
2     1    12 2034-12-17  847990               NA         0     2090
3     1    12 2034-12-17  847990               NA         5     2635
# ℹ 4,222 more rows
# ℹ 1 more variable: valueofgoodsusd <dbl>
…
